%YAML 1.1
%TAG !u! tag:unity3d.com,2011:
--- !u!21 &2100000
Material:
  serializedVersion: 6
  m_ObjectHideFlags: 0
  m_CorrespondingSourceObject: {fileID: 0}
  m_PrefabInstance: {fileID: 0}
  m_PrefabAsset: {fileID: 0}
  m_Name: BodyGreen
  m_Shader: {fileID: 4800000, guid: 2dcd9e0568e0a6f45b92c60ba2eb16a0, type: 3}
  m_ShaderKeywords: 
  m_LightmapFlags: 4
  m_EnableInstancingVariants: 1
  m_DoubleSidedGI: 0
  m_CustomRenderQueue: -1
  stringTagMap: {}
  disabledShaderPasses: []
  m_SavedProperties:
    serializedVersion: 3
    m_TexEnvs:
    - _MainTex:
        m_Texture: {fileID: 2800000, guid: a6f95a20f3399fa4db54755ffc38ae9c, type: 3}
        m_Scale: {x: 0.25, y: 0.25}
        m_Offset: {x: 0, y: 0.75}
    m_Floats: []
    m_Colors: []
